{
   "name":"BAI area",
   "locationName":"Zephyr venue",
   "startDateTimeStr":"2021-10-26 09:30",
   "endDateTimeStr":"2021-10-27 23:30",
   "optionExpiredDateStr":null,
   "cancelledExplanation":null,
   "purposeId":"5b895b8ce4b0c929e87a4c72",
   "purposeCategory":"other",
   "purposeNames":[
      {
         "id":"f5c5dfeb-9fb7-4d88-a517-0fbfea1690e8",
         "languageCode":"en",
         "data":"Meeting"
      },
      {
         "id":"debba385-507e-47fe-86e3-a5f32e997c8e",
         "languageCode":"nl",
         "data":"Vergadering"
      },
      {
         "id":"11850c92-1575-46e4-a8eb-d3d592e1dfd3",
         "languageCode":"br",
         "data":"Reunião"
      }
   ],
   "dayScheduleParts":[
      {
         "id":"49a19925-03e0-4135-b730-42452e40e3c5",
         "eventId":null,
         "name":"After sit",
         "startDateTimeStr":"2021-10-26 09:30",
         "endDateTimeStr":"2021-10-26 14:00",
         "comment":"",
         "startDateTimeUnix":1635215400000,
         "endDateTimeUnix":1635231600000,
         "activityId":"5f2226c4ccbe4e4a4f212620",
         "startDayBlock":0,
         "endDayBlock":0,
         "dayBlocks":1,
         "tmpDayBlocks":0,
         "attendees":10,
         "overnightStay":false,
         "areasPrice":0.0,
         "foodsPrice":0.0,
         "beveragesPrice":0.0,
         "beverageGroupsPrice":0.0,
         "rentableResourcesPrice":0.0,
         "consumableResourcesPrice":0.0,
         "areasPriceExclVat":0.0,
         "foodsPriceExclVat":0.0,
         "beveragesPriceExclVat":0.0,
         "beverageGroupsPriceExclVat":0.0,
         "rentableResourcesPriceExclVat":0.0,
         "consumableResourcesPriceExclVat":0.0,
         "totalPrice":0.0,
         "totalPriceExclVat":0.0,
         "eventAreaTypes":[
            
         ],
         "eventFoodTypes":[
            
         ],
         "eventBeverageTypes":[
            
         ],
         "eventBeverageGroups":[
            
         ],
         "eventRentableResourceTypes":[
            {
               "id":"67af8cf3-3b59-49ec-b3dc-dfdb718a1541",
               "name":"Paper A0",
               "price":0.0,
               "priceExclVat":0.0,
               "calculatedPrice":0.0,
               "calculatedPriceExclVat":0.0,
               "eventId":null,
               "dayScheduleId":"49a19925-03e0-4135-b730-42452e40e3c5",
               "vatCode":null,
               "totalPrice":0.0,
               "totalPriceExclVat":0.0,
               "vatPercentage":0.0,
               "itemTypeId":169811,
               "categoryName":null,
               "type":100,
               "itemKind":"rentable-resource-types",
               "minNumberOfSales":null,
               "unlimited":false,
               "numberOfItemsPerPerson":1,
               "numberOfItemsPerEvent":1,
               "recommended":false,
               "selected":false,
               "costTypeId":null,
               "costTypeName":null,
               "venueTurnoverAccountId":null,
               "venueTurnoverAccountName":null,
               "dayBlocks":1,
               "numberOfItemsOfRentableResource":1,
               "vatPrice":0.0,
               "numberOfItems":1,
               "calculatedInQuotation":false,
               "basicArrangementItem":true,
               "coffeeAndTeaBasicArrangementItem":false,
               "includedInEvent":true
            }
         ],
         "eventConsumableResourceTypes":[
            
         ],
         "eventPartTimeInHour":4.5
      }
   ],
   "overnightStays":[
      {
         "id":"827de3f9-062b-4b09-b5aa-2940b087222b",
         "name":"Overnight stay",
         "date":"2021-10-26 17:00",
         "startDateTimeStr":"2021-10-26 17:00",
         "endDateTimeStr":"2021-10-27 10:00",
         "originalDate":"2021-10-26",
         "startDateTimeUnix":1635242400000,
         "endDateTimeUnix":1635303600000,
         "overnightStayEnabled":true,
         "overnightStayCoveredByDSP":false,
         "overnightStay":true,
         "numberOfAttendees":10,
         "attendees":10
      }
   ],
   "invoiceList":[
      
   ],
   "eventTemplateId":null,
   "showBeverageGroupWarningWhenSendingInvoice":true,
   "shouldShowCancelledEventNotifyModal":true,
   "commissionType":"commissionForNoEb",
   "postCalculationBeverageGroups":[
      
   ],
   "id":"5bf61f08-85e3-45d9-b46a-62bbc75ca64c",
}
