{
  "id": 169509,
  "name": "Basic Arrangement",
  "dayBlocks": 0,
  "type": 1,
  "calculatedPricePerPerson": 0,
  "calculatedPriceArrangement": 0,
  "minPeople": 1,
  "pricePerPerson": 0,
  "pricePerDayBlock": 0,
  "totalPrice": 6,
  "totalPriceExclVat": 6,
  "startDate": 1627547524000,
  "endDate": null,
  "costTypeId": null,
  "venueTurnoverAccountId": null,
  "items": [
    {
      "id": 169811,
      "locationId": 169450,
      "costTypeId": null,
      "venueTurnoverAccountId": "2c402a09-e225-42c3-b7e5-4d3c011cd574",
      "startDate": null,
      "endDate": null,
      "categoryId": null,
      "name": "Paper A0",
      "photoUrl": null,
      "vatCode": "BTWhg",
      "categoryName": null,
      "description": null,
      "price": 1,
      "priceExclVat": 1,
      "type": 0,
      "itemKind": "rentable-resource-types",
      "minNumberOfSales": 0,
      "active": true,
      "arrangementId": 169509,
      "includedInBasicArrangement": true,
      "beverageGroupItem": false,
      "default": false
    },
    {
      "id": 169511,
      "locationId": 169450,
      "costTypeId": null,
      "venueTurnoverAccountId": null,
      "startDate": null,
      "endDate": null,
      "categoryId": null,
      "name": "Café e chá",
      "photoUrl": null,
      "vatCode": null,
      "categoryName": null,
      "description": null,
      "price": 0,
      "priceExclVat": 0,
      "type": 4,
      "itemKind": "beverage-groups",
      "minNumberOfSales": 0,
      "active": true,
      "arrangementId": 169509,
      "includedInBasicArrangement": false,
      "beverageGroupItem": true,
      "default": true
    },
    {
      "id": 169510,
      "locationId": 169450,
      "costTypeId": null,
      "venueTurnoverAccountId": "fdac1b6f-89ef-4ad2-a414-3d4030b15347",
      "startDate": null,
      "endDate": null,
      "categoryId": null,
      "name": "Area",
      "photoUrl": null,
      "vatCode": "BTWlg",
      "categoryName": null,
      "description": null,
      "price": 5,
      "priceExclVat": 5,
      "type": 101,
      "itemKind": "area-types",
      "minNumberOfSales": 0,
      "active": true,
      "arrangementId": 169509,
      "includedInBasicArrangement": true,
      "beverageGroupItem": false,
      "default": true
    }
  ],
  "areaIncludedInBasicArrangement": true,
  "links": []
}